…
**Distribution of rides by user types and start/end station**

``` r
rd_station <- trip_data %>% 
  group_by(member_casual, start_station_name) %>%
  summarise(count = length(start_station_name), start_id = first(start_station_id),
            .groups = "drop") %>% 
  arrange(desc(count))
print(rd_station)
```

    ## # A tibble: 3,010 × 4
    ##    member_casual start_station_name                 count start_id    
    ##    <chr>         <chr>                              <int> <chr>       
    ##  1 casual        Streeter Dr & Grand Ave            48932 13022       
    ##  2 casual        DuSable Lake Shore Dr & Monroe St  28592 13300       
    ##  3 member        Kingsbury St & Kinzie St           22997 KA1503000043
    ##  4 casual        Michigan Ave & Oak St              22058 13042       
    ##  5 casual        Millennium Park                    21571 13008       
    ##  6 member        Clark St & Elm St                  21190 TA1307000039
    ##  7 member        Clinton St & Washington Blvd       20428 WL-012      
    ##  8 casual        DuSable Lake Shore Dr & North Blvd 20033 LF-005      
    ##  9 member        Wells St & Concord Ln              19350 TA1308000050
    ## 10 member        Loomis St & Lexington St           19092 13332       
    ## # ℹ 3,000 more rows
…
**Distribution of ride duration by user types and month**

``` r
duration_month <- trip_data %>% 
  group_by(member_casual, month) %>%
  summarise(mean = mean(duration), min = min(duration), max = max(duration), 
            sd = sd(duration), median = median(duration), .groups = "drop")
print(duration_month)
```

    ## # A tibble: 24 × 7
    ##    member_casual month  mean   min   max    sd median
    ##    <chr>         <ord> <dbl> <dbl> <dbl> <dbl>  <dbl>
    ##  1 casual        Jan    908.    60 81073 2694.    503
    ##  2 casual        Feb   1078.    60 85417 2926.    566
    ##  3 casual        Mar   1022.    60 85654 2702.    564
    ##  4 casual        Apr   1378.    60 85803 2980.    753
    ##  5 casual        May   1488.    60 86146 2866.    855
    ##  6 casual        Jun   1458.    60 86051 2934.    844
    ##  7 casual        Jul   1515.    60 86362 2459.    905
    ##  8 casual        Aug   1416.    60 86217 2361.    839
    ##  9 casual        Sep   1326.    60 83285 2334.    782
    ## 10 casual        Oct   1243.    60 86032 2278.    716
    ## # ℹ 14 more rows
…
